<?xml version="1.0" encoding="UTF-8" standalone="no"?>
<svg
   xmlns:osb="http://www.openswatchbook.org/uri/2009/osb"
   xmlns:dc="http://purl.org/dc/elements/1.1/"
   xmlns:cc="http://creativecommons.org/ns#"
   xmlns:rdf="http://www.w3.org/1999/02/22-rdf-syntax-ns#"
   xmlns:svg="http://www.w3.org/2000/svg"
   xmlns="http://www.w3.org/2000/svg"
   xmlns:xlink="http://www.w3.org/1999/xlink"
   xmlns:sodipodi="http://sodipodi.sourceforge.net/DTD/sodipodi-0.dtd"
   xmlns:inkscape="http://www.inkscape.org/namespaces/inkscape"
   width="399.99829"
   height="400"
   viewBox="0 0 319.99865 320"
   version="1.1"
   id="svg2985"
   inkscape:version="0.48.5 r10040"
   sodipodi:docname="rowingcas.svg"
   inkscape:label="rower"
   inkscape:export-filename="/Users/gwesp/Desktop/rowingcas.png"
   inkscape:export-xdpi="600"
   inkscape:export-ydpi="600"
   style="enable-background:new">
  <metadata
     id="metadata3001">
    <rdf:RDF>
      <cc:Work
         rdf:about="">
        <dc:format>image/svg+xml</dc:format>
        <dc:type
           rdf:resource="http://purl.org/dc/dcmitype/StillImage" />
        <dc:title></dc:title>
      </cc:Work>
    </rdf:RDF>
  </metadata>
  <defs
     id="defs2999">
    <marker
       inkscape:stockid="Arrow1Lstart"
       orient="auto"
       refY="0.0"
       refX="0.0"
       id="Arrow1Lstart"
       style="overflow:visible">
      <path
         id="path3812"
         d="M 0.0,0.0 L 5.0,-5.0 L -12.5,0.0 L 5.0,5.0 L 0.0,0.0 z "
         style="fill-rule:evenodd;stroke:#000000;stroke-width:1.0pt"
         transform="scale(0.8) translate(12.5,0)" />
    </marker>
    <linearGradient
       id="linearGradient4022"
       osb:paint="solid">
      <stop
         style="stop-color:#000000;stop-opacity:1;"
         offset="0"
         id="stop4024" />
    </linearGradient>
    <linearGradient
       id="linearGradient3776">
      <stop
         id="stop3784"
         offset="0"
         style="stop-color:#69d74c;stop-opacity:1;" />
      <stop
         style="stop-color:#d8ffff;stop-opacity:1;"
         offset="1"
         id="stop3780" />
    </linearGradient>
    <linearGradient
       id="linearGradient5545">
      <stop
         style="stop-color:#69d74c;stop-opacity:1;"
         offset="0"
         id="stop5547" />
      <stop
         style="stop-color:#69d74c;stop-opacity:0;"
         offset="1"
         id="stop5549" />
    </linearGradient>
    <inkscape:path-effect
       effect="skeletal"
       id="path-effect5342"
       is_visible="true"
       pattern="M 0,5 C 0,2.24 2.24,0 5,0 7.76,0 10,2.24 10,5 10,7.76 7.76,10 5,10 2.24,10 0,7.76 0,5 z"
       copytype="single_stretched"
       prop_scale="1"
       scale_y_rel="false"
       spacing="0"
       normal_offset="0"
       tang_offset="0"
       prop_units="false"
       vertical_pattern="false"
       fuse_tolerance="0" />
    <inkscape:path-effect
       effect="skeletal"
       id="path-effect5338"
       is_visible="true"
       pattern="M 0,5 C 0,2.24 2.24,0 5,0 7.76,0 10,2.24 10,5 10,7.76 7.76,10 5,10 2.24,10 0,7.76 0,5 z"
       copytype="single_stretched"
       prop_scale="1"
       scale_y_rel="false"
       spacing="0"
       normal_offset="0"
       tang_offset="0"
       prop_units="false"
       vertical_pattern="false"
       fuse_tolerance="0" />
    <inkscape:path-effect
       effect="spiro"
       id="path-effect5334"
       is_visible="true" />
    <linearGradient
       id="linearGradient5318">
      <stop
         style="stop-color:#00ff00;stop-opacity:1;"
         offset="0"
         id="stop5320" />
      <stop
         style="stop-color:#00ff00;stop-opacity:0;"
         offset="1"
         id="stop5322" />
    </linearGradient>
    <inkscape:path-effect
       effect="skeletal"
       id="path-effect3096"
       is_visible="true"
       pattern="M 0,5 10,10 10,0 z"
       copytype="single_stretched"
       prop_scale="1"
       scale_y_rel="false"
       spacing="0"
       normal_offset="0"
       tang_offset="0"
       prop_units="false"
       vertical_pattern="false"
       fuse_tolerance="0" />
    <inkscape:path-effect
       effect="skeletal"
       id="path-effect3092"
       is_visible="true"
       pattern="M 0,5 10,10 10,0 z"
       copytype="single_stretched"
       prop_scale="1"
       scale_y_rel="false"
       spacing="0"
       normal_offset="0"
       tang_offset="0"
       prop_units="false"
       vertical_pattern="false"
       fuse_tolerance="0" />
    <linearGradient
       inkscape:collect="always"
       xlink:href="#linearGradient3776"
       id="linearGradient3782"
       x1="29.464668"
       y1="144.91078"
       x2="264.13135"
       y2="144.91078"
       gradientUnits="userSpaceOnUse" />
  </defs>
  <sodipodi:namedview
     pagecolor="#ffffff"
     bordercolor="#666666"
     borderopacity="1"
     objecttolerance="10"
     gridtolerance="10"
     guidetolerance="10"
     inkscape:pageopacity="0"
     inkscape:pageshadow="2"
     inkscape:window-width="1293"
     inkscape:window-height="659"
     id="namedview2997"
     showgrid="true"
     inkscape:snap-grids="true"
     inkscape:snap-to-guides="false"
     inkscape:zoom="1.3902192"
     inkscape:cx="223.09893"
     inkscape:cy="164.36938"
     inkscape:window-x="71"
     inkscape:window-y="42"
     inkscape:window-maximized="0"
     inkscape:current-layer="layer2"
     fit-margin-top="30"
     fit-margin-left="39.29"
     fit-margin-right="39.29"
     fit-margin-bottom="30"
     showguides="true"
     inkscape:snap-global="true"
     inkscape:guide-bbox="true">
    <inkscape:grid
       type="xygrid"
       id="grid3136"
       empspacing="5"
       visible="true"
       enabled="true"
       snapvisiblegridlinesonly="true"
       originx="36.642692px"
       originy="79.99996px"
       spacingx="3px"
       spacingy="3px"
       dotted="false" />
    <sodipodi:guide
       orientation="1,0"
       position="-300.67201,302.82994"
       id="guide3797" />
  </sodipodi:namedview>
  <g
     inkscape:groupmode="layer"
     id="layer3"
     inkscape:label="coat"
     style="display:inline"
     transform="translate(14.516155,15.089219)"
     sodipodi:insensitive="true">
    <path
       style="fill:url(#linearGradient3782);fill-opacity:1;stroke:#7799cc;stroke-width:32;stroke-linecap:butt;stroke-linejoin:round;stroke-miterlimit:4;stroke-opacity:1;stroke-dasharray:none"
       d="m 146.798,24.910774 c 60,24 96.00001,24 96.00001,24 0,0 12,60.000006 0,120.000006 -12,60 -96.00001,96 -96.00001,96 0,0 -83.999999,-36 -95.999999,-96 -12,-60 0,-120.000006 0,-120.000006 0,0 36.000001,0 95.999999,-24 z"
       id="path5346"
       inkscape:connector-curvature="0"
       sodipodi:nodetypes="cczczcc" />
  </g>
  <g
     inkscape:groupmode="layer"
     id="layer4"
     inkscape:label="rower_asian_games"
     style="opacity:0.4921875;display:none"
     transform="translate(14.516155,15.089219)"
     sodipodi:insensitive="true">
    <path
       d="m 164.41594,67.781369 c 8.77436,-4.48254 25.38492,-4.8637 25.66412,2.98815 0.27919,7.85185 -27.07199,23.761101 -33.70689,21.51355 -3.69632,-1.898929 -4.93115,-8.34678 -3.09983,-13.25055 1.83134,-4.90377 2.36823,-6.7686 11.1426,-11.25115 z"
       id="path2989-7"
       inkscape:connector-curvature="0"
       style="fill:none;stroke:#000000;stroke-width:2.83464599;stroke-miterlimit:4;stroke-opacity:1;stroke-dasharray:none;enable-background:new"
       sodipodi:nodetypes="zzczz" />
    <path
       style="fill:none;stroke:#000000;stroke-width:2.83464599;stroke-linecap:butt;stroke-linejoin:round;stroke-miterlimit:4;stroke-opacity:1;stroke-dasharray:none;enable-background:new"
       d="m 169.33317,93.973068 c -25.81171,13.831472 -51.83963,6.848552 -82.09999,10.250012 -5.64,0.54 -11.9,2.41 -15.25,7.3 -1.36,5.32001 4.335,7.37001 7.425,10.25002 6.83,9.51 13.85,18.955 21.79999,27.57499 -4.119995,5.7 -9.71499,10.07 -15.57499,13.85 -22.01331,0.81446 -43.89836,5.26602 -67.30001,16.475 31.72001,-6.47 64.92501,-6.765 96.475,0.825 9.5966,2.51831 27.64999,6.225 27.64999,6.225 0,0 25.42629,14.9781 35.75001,20.375 10.32373,5.3969 9.93772,7.25746 22.55,15.825 12.61228,8.56754 32.375,16.8 32.375,16.8 l 10.7,-19.95 c 0,0 -30.93908,-8.40392 -46.975,-12.45 -16.03592,-4.04609 -41.75,-18.4 -41.75,-18.4 0,0 40.0613,7.59332 66.2,3.175 26.13871,-4.41833 32.21984,-11.75682 51.32501,-25.675 -18.64001,11.41 -40.99001,14.21 -62.45001,14.3 8.44863,-21.65336 5.02268,-37.59145 -1.7,-51.67499 -6.72267,-14.08356 -31.04,-31.455028 -39.15,-35.075032 z M 86.60818,110.04808 c 1.69875,-0.0662 3.405,0.195 5.025,0.725 10.58999,3.43 21.53581,3.69098 33.44998,4.30001 11.91418,0.60902 30.72864,1.50531 40.25001,6.02501 9.52137,4.51968 16.09,10.69 18.95,18.7 0.5,2.67 1.8,6.86999 -1.15,8.44999 -2.56,0.55 -4.88,-1.115 -7.05,-2.225 -18.03969,-12.57972 -39.0881,-23.78493 -52.22501,-19.22499 -13.1369,4.55993 -15.87499,14.245 -20.27499,19.47499 -7.309995,-7.68999 -13.79499,-16.10999 -20.12499,-24.59999 -2.51,-2.87001 -1.555,-6.92001 -1.775,-10.40002 1.545,-0.765 3.22625,-1.15874 4.925,-1.225 z m 42.42498,31.42502 c 8.28003,-0.015 20.93712,11.3359 26.12501,17.54999 5.92901,7.10183 11.35,15.25 11.35,15.25 0,0 -27.80501,-8.61 -42.32501,-9.95 -3.65,0.03 -8.02499,-5.4 -8.02499,-5.4 0,0 1.87212,-12.58509 9.62499,-16.69999 0.9691,-0.51437 2.06714,-0.74787 3.25,-0.75 z"
       id="path2991-4"
       inkscape:connector-curvature="0" />
  </g>
  <g
     inkscape:groupmode="layer"
     id="layer1"
     inkscape:label="bonhomme"
     transform="translate(24.001325,23.999998)"
     style="display:none"
     sodipodi:insensitive="true">
    <path
       style="fill:#000000;fill-opacity:1;stroke:#000000;stroke-width:10;stroke-linecap:round;stroke-linejoin:round;stroke-miterlimit:4;stroke-opacity:1;stroke-dasharray:none"
       d="m 66.641038,110.00002 15,15 90.015212,-2e-5 45,45 0,30 -60,-60 -60,60 -75.015212,2e-5 15,15 270.000002,0 15,-15 -74.98479,-2e-5 0,-45 -45,-45 z M 156.65625,170 l 30,30 -60,0 z"
       transform="matrix(0.80000006,0,0,0.80000006,0,-1e-5)"
       id="path3838"
       inkscape:connector-curvature="0"
       sodipodi:nodetypes="ccccccccccccccccccc" />
    <path
       sodipodi:type="arc"
       style="fill:#000000;fill-opacity:1;stroke:#000000;stroke-width:10;stroke-linecap:round;stroke-linejoin:round;stroke-miterlimit:4;stroke-opacity:1;stroke-dasharray:none"
       id="path4033"
       sodipodi:cx="201.64104"
       sodipodi:cy="80.000015"
       sodipodi:rx="15"
       sodipodi:ry="15"
       d="m 216.64104,80.000015 c 0,8.284272 -6.71573,15 -15,15 -8.28427,0 -15,-6.715728 -15,-15 0,-8.284271 6.71573,-15 15,-15 8.28427,0 15,6.715729 15,15 z"
       transform="matrix(0.80000006,0,0,0.80000006,8.3057863e-7,-8.7011488e-6)" />
    <path
       style="fill:#000000;fill-opacity:1;stroke:#000000;stroke-width:10;stroke-linecap:round;stroke-linejoin:round;stroke-miterlimit:4;stroke-opacity:1;stroke-dasharray:none"
       d="m 66.641038,110.00002 150.000002,150 15,0 30,30 -15,15 -30,-30 0,-15 z"
       id="path4042"
       inkscape:connector-curvature="0"
       transform="matrix(0.80000006,0,0,0.80000006,0,-1e-5)"
       sodipodi:nodetypes="cccccccc" />
  </g>
  <g
     inkscape:groupmode="layer"
     id="layer2"
     inkscape:label="worker"
     style="display:inline">
    <path
       style="fill:#000000;fill-opacity:1;stroke:#000000;stroke-width:8;stroke-linecap:round;stroke-linejoin:round;stroke-miterlimit:4;stroke-opacity:1;stroke-dasharray:none"
       d="m 197.31416,88.000028 -120,120.000002 12,12 60,-60 24,24 -24,24 12,12 36,-36 -24,-24 48.00001,-48 z"
       id="path3017"
       inkscape:connector-curvature="0"
       sodipodi:nodetypes="ccccccccccc" />
    <path
       style="fill:#000000;fill-opacity:1;stroke:#000000;stroke-width:8;stroke-linecap:round;stroke-linejoin:round;stroke-miterlimit:4;stroke-opacity:1;stroke-dasharray:none"
       d="m 125.31416,88.00004 108,107.99999 12.00001,-12 12,24 -12,12.00001 -24,-12.00001 11.99999,-12"
       id="path3019"
       inkscape:connector-curvature="0"
       sodipodi:nodetypes="ccccccc" />
    <path
       style="fill:#000000;fill-opacity:1;stroke:#000000;stroke-width:8;stroke-linecap:butt;stroke-linejoin:round;stroke-miterlimit:4;stroke-opacity:1;stroke-dasharray:none"
       d="m 149.31416,124.00003 0,-36.000002 48,0 0,12.000002 -36,0 0,24 z"
       id="path3793"
       inkscape:connector-curvature="0" />
    <path
       style="fill:#000000;fill-opacity:1;stroke:#000000;stroke-width:8;stroke-linecap:round;stroke-linejoin:round;stroke-miterlimit:4;stroke-opacity:1;stroke-dasharray:none"
       d="m 221.31417,112.00003 0,60 -12.00001,0 0,-60 z"
       id="path3795"
       inkscape:connector-curvature="0" />
    <path
       style="fill:none;stroke:#000000;stroke-width:0.80000001px;stroke-linecap:butt;stroke-linejoin:miter;stroke-opacity:1"
       d="M 233.31417,76.000027 z"
       id="path3802"
       inkscape:connector-curvature="0" />
    <path
       style="fill:#000000;fill-opacity:1;stroke:#000000;stroke-width:8;stroke-linecap:round;stroke-linejoin:round;stroke-miterlimit:4;stroke-opacity:1;stroke-dasharray:none"
       d="M 232.97236,77.076167 z"
       id="path3804"
       inkscape:connector-curvature="0" />
    <path
       sodipodi:type="arc"
       style="fill:#000000;fill-opacity:1;stroke:#000000;stroke-width:10;stroke-linecap:round;stroke-linejoin:round;stroke-miterlimit:4;stroke-opacity:1;stroke-dasharray:none;display:inline;enable-background:new"
       id="path4033-7"
       sodipodi:cx="201.64104"
       sodipodi:cy="80.000015"
       sodipodi:rx="15"
       sodipodi:ry="15"
       d="m 216.64104,80.000015 a 15,15 0 1 1 -30,0 15,15 0 1 1 30,0 z"
       transform="matrix(0.80000004,0,0,0.80000004,64.520496,19.971871)" />
  </g>
</svg>
